/home/camilo/NetBeansProjects/retoFinal/src/main/java/com/mycompany/retofinal/ProductoRefrigerado.java
/home/camilo/NetBeansProjects/retoFinal/src/main/java/com/mycompany/retofinal/tablaProductos.java
/home/camilo/NetBeansProjects/retoFinal/src/main/java/com/mycompany/retofinal/ProductoNoRefrigerado.java
/home/camilo/NetBeansProjects/retoFinal/src/main/java/com/mycompany/retofinal/ConexionBD.java
/home/camilo/NetBeansProjects/retoFinal/src/main/java/com/mycompany/retofinal/Producto.java
